%YAML 1.1
%TAG !u! tag:unity3d.com,2011:
--- !u!21 &2100000
Material:
  serializedVersion: 8
  m_ObjectHideFlags: 0
  m_CorrespondingSourceObject: {fileID: 0}
  m_PrefabInstance: {fileID: 0}
  m_PrefabAsset: {fileID: 0}
  m_Name: Module Capsule Inner Material
  m_Shader: {fileID: -6465566751694194690, guid: fcb73d8ac0e0f5d4ab1d915e80e46aaf,
    type: 3}
  m_Parent: {fileID: 0}
  m_ModifiedSerializedProperties: 0
  m_ValidKeywords: []
  m_InvalidKeywords: []
  m_LightmapFlags: 2
  m_EnableInstancingVariants: 0
  m_DoubleSidedGI: 0
  m_CustomRenderQueue: -1
  stringTagMap: {}
  disabledShaderPasses: []
  m_LockedProperties: 
  m_SavedProperties:
    serializedVersion: 3
    m_TexEnvs:
    - _Pattern:
        m_Texture: {fileID: 2800000, guid: 994a1d2c560d11643939799ec159d22b, type: 3}
        m_Scale: {x: 1, y: 1}
        m_Offset: {x: 0, y: 0}
    - unity_Lightmaps:
        m_Texture: {fileID: 0}
        m_Scale: {x: 1, y: 1}
        m_Offset: {x: 0, y: 0}
    - unity_LightmapsInd:
        m_Texture: {fileID: 0}
        m_Scale: {x: 1, y: 1}
        m_Offset: {x: 0, y: 0}
    - unity_ShadowMasks:
        m_Texture: {fileID: 0}
        m_Scale: {x: 1, y: 1}
        m_Offset: {x: 0, y: 0}
    m_Ints: []
    m_Floats:
    - _FloorGradientAlpha: 0.1
    - _Fresnel_Alpha: 0.05
    - _Fresnel_Distance_Multiplier: 1
    - _Fresnel_Power: 10
    - _Intensity: 3
    - _IsHighlighted: 0
    - _IsHovered: 0
    - _Minimum_Pattern_Visibility: 0.025
    - _Offset: 0.8
    - _Pattern_Tiling: 50.29
    - _QueueControl: 0
    - _QueueOffset: 0
    - _UseFresnel: 1
    - _UsePatternTexture: 0
    m_Colors:
    - _Color: {r: 1, g: 1, b: 1, a: 0}
    - _ColorHighlighted: {r: 1, g: 0.41666666, b: 0, a: 0}
    - _ColorNormal: {r: 1, g: 1, b: 1, a: 0}
  m_BuildTextureStacks: []
--- !u!114 &7077297194790365819
MonoBehaviour:
  m_ObjectHideFlags: 11
  m_CorrespondingSourceObject: {fileID: 0}
  m_PrefabInstance: {fileID: 0}
  m_PrefabAsset: {fileID: 0}
  m_GameObject: {fileID: 0}
  m_Enabled: 1
  m_EditorHideFlags: 0
  m_Script: {fileID: 11500000, guid: d0353a89b1f911e48b9e16bdc9f2e058, type: 3}
  m_Name: 
  m_EditorClassIdentifier: 
  version: 7
