{
    "m_SGVersion": 3,
    "m_Type": "UnityEditor.ShaderGraph.GraphData",
    "m_ObjectId": "6498599fcdc44f0c8f0654e68c00f809",
    "m_Properties": [
        {
            "m_Id": "433880eafa5840ce922a3451eb144f6e"
        },
        {
            "m_Id": "d6a6a51259ea477d85a12dc992774af4"
        },
        {
            "m_Id": "df3b28bb0bfd4d80a3d65adfa5bc7ca3"
        },
        {
            "m_Id": "0199bac477b9456f89805e3394d5d854"
        },
        {
            "m_Id": "cf03156aaa704aa5b1110e8382114de7"
        },
        {
            "m_Id": "5082ec9be9954c6ab89cafb3eec88c54"
        },
        {
            "m_Id": "fd0bc62253644178a6795e849912ae60"
        },
        {
            "m_Id": "dfe929a951ca4079a755a21d1d196e8f"
        },
        {
            "m_Id": "99022f3c2f2f4a448285ade2b76e54b0"
        },
        {
            "m_Id": "ba4d77ac6c5c4fb0aa3ff91ee491ee31"
        }
    ],
    "m_Keywords": [],
    "m_Dropdowns": [],
    "m_CategoryData": [
        {
            "m_Id": "c3cfe769cc884ee1b437afc47a82bb9a"
        }
    ],
    "m_Nodes": [
        {
            "m_Id": "dd4debc40f2a43daa806533480340e4b"
        },
        {
            "m_Id": "d70e20308a2d4ca38c420fa18ef5eb37"
        },
        {
            "m_Id": "4d22ec4294d64ae799b280d07aeaa501"
        },
        {
            "m_Id": "9299171b30a14d7b8c64cc1474735bd6"
        },
        {
            "m_Id": "6fc39ce4aacd410c8d1f88e0672d4fb2"
        },
        {
            "m_Id": "596bf5c591bd407c849320d004f5608b"
        },
        {
            "m_Id": "2dea7023d0e44b3db64458a57fe5da3f"
        },
        {
            "m_Id": "52904285efbc4f518f1983c4c925c976"
        },
        {
            "m_Id": "8dfa8e1423fc4d77a1c5a25ad1ad3196"
        },
        {
            "m_Id": "3b08293438bf4f198b050cddc3e74668"
        },
        {
            "m_Id": "329718114d80489c869468057785378e"
        },
        {
            "m_Id": "b1c7ef6e7c1f4cc0a3c3695e9016e0c8"
        },
        {
            "m_Id": "b6917889a21f468f885d20c9d602f6a2"
        },
        {
            "m_Id": "867a2b3721b045d3bffb512b001cec45"
        },
        {
            "m_Id": "c96f467a493b43198a865611882b6869"
        },
        {
            "m_Id": "d749df2843a1466d89299cbffffe1910"
        }
    ],
    "m_GroupDatas": [],
    "m_StickyNoteDatas": [],
    "m_Edges": [
        {
            "m_OutputSlot": {
                "m_Node": {
                    "m_Id": "2dea7023d0e44b3db64458a57fe5da3f"
                },
                "m_SlotId": 0
            },
            "m_InputSlot": {
                "m_Node": {
                    "m_Id": "867a2b3721b045d3bffb512b001cec45"
                },
                "m_SlotId": 1709844762
            }
        },
        {
            "m_OutputSlot": {
                "m_Node": {
                    "m_Id": "329718114d80489c869468057785378e"
                },
                "m_SlotId": 0
            },
            "m_InputSlot": {
                "m_Node": {
                    "m_Id": "867a2b3721b045d3bffb512b001cec45"
                },
                "m_SlotId": 694645043
            }
        },
        {
            "m_OutputSlot": {
                "m_Node": {
                    "m_Id": "3b08293438bf4f198b050cddc3e74668"
                },
                "m_SlotId": 0
            },
            "m_InputSlot": {
                "m_Node": {
                    "m_Id": "867a2b3721b045d3bffb512b001cec45"
                },
                "m_SlotId": 475148899
            }
        },
        {
            "m_OutputSlot": {
                "m_Node": {
                    "m_Id": "52904285efbc4f518f1983c4c925c976"
                },
                "m_SlotId": 0
            },
            "m_InputSlot": {
                "m_Node": {
                    "m_Id": "867a2b3721b045d3bffb512b001cec45"
                },
                "m_SlotId": -1367655343
            }
        },
        {
            "m_OutputSlot": {
                "m_Node": {
                    "m_Id": "596bf5c591bd407c849320d004f5608b"
                },
                "m_SlotId": 0
            },
            "m_InputSlot": {
                "m_Node": {
                    "m_Id": "867a2b3721b045d3bffb512b001cec45"
                },
                "m_SlotId": -839662672
            }
        },
        {
            "m_OutputSlot": {
                "m_Node": {
                    "m_Id": "867a2b3721b045d3bffb512b001cec45"
                },
                "m_SlotId": 1
            },
            "m_InputSlot": {
                "m_Node": {
                    "m_Id": "6fc39ce4aacd410c8d1f88e0672d4fb2"
                },
                "m_SlotId": 0
            }
        },
        {
            "m_OutputSlot": {
                "m_Node": {
                    "m_Id": "867a2b3721b045d3bffb512b001cec45"
                },
                "m_SlotId": 2
            },
            "m_InputSlot": {
                "m_Node": {
                    "m_Id": "9299171b30a14d7b8c64cc1474735bd6"
                },
                "m_SlotId": 0
            }
        },
        {
            "m_OutputSlot": {
                "m_Node": {
                    "m_Id": "8dfa8e1423fc4d77a1c5a25ad1ad3196"
                },
                "m_SlotId": 0
            },
            "m_InputSlot": {
                "m_Node": {
                    "m_Id": "867a2b3721b045d3bffb512b001cec45"
                },
                "m_SlotId": 1119040423
            }
        },
        {
            "m_OutputSlot": {
                "m_Node": {
                    "m_Id": "b1c7ef6e7c1f4cc0a3c3695e9016e0c8"
                },
                "m_SlotId": 0
            },
            "m_InputSlot": {
                "m_Node": {
                    "m_Id": "867a2b3721b045d3bffb512b001cec45"
                },
                "m_SlotId": 1344126265
            }
        },
        {
            "m_OutputSlot": {
                "m_Node": {
                    "m_Id": "b6917889a21f468f885d20c9d602f6a2"
                },
                "m_SlotId": 0
            },
            "m_InputSlot": {
                "m_Node": {
                    "m_Id": "867a2b3721b045d3bffb512b001cec45"
                },
                "m_SlotId": -180197118
            }
        },
        {
            "m_OutputSlot": {
                "m_Node": {
                    "m_Id": "c96f467a493b43198a865611882b6869"
                },
                "m_SlotId": 0
            },
            "m_InputSlot": {
                "m_Node": {
                    "m_Id": "867a2b3721b045d3bffb512b001cec45"
                },
                "m_SlotId": -890238870
            }
        },
        {
            "m_OutputSlot": {
                "m_Node": {
                    "m_Id": "d749df2843a1466d89299cbffffe1910"
                },
                "m_SlotId": 0
            },
            "m_InputSlot": {
                "m_Node": {
                    "m_Id": "867a2b3721b045d3bffb512b001cec45"
                },
                "m_SlotId": -7146644
            }
        }
    ],
    "m_VertexContext": {
        "m_Position": {
            "x": 2196.0,
            "y": -262.0000305175781
        },
        "m_Blocks": [
            {
                "m_Id": "dd4debc40f2a43daa806533480340e4b"
            },
            {
                "m_Id": "d70e20308a2d4ca38c420fa18ef5eb37"
            },
            {
                "m_Id": "4d22ec4294d64ae799b280d07aeaa501"
            }
        ]
    },
    "m_FragmentContext": {
        "m_Position": {
            "x": 2196.0,
            "y": -62.00002670288086
        },
        "m_Blocks": [
            {
                "m_Id": "9299171b30a14d7b8c64cc1474735bd6"
            },
            {
                "m_Id": "6fc39ce4aacd410c8d1f88e0672d4fb2"
            }
        ]
    },
    "m_PreviewData": {
        "serializedMesh": {
            "m_SerializedMesh": "{\"mesh\":{\"instanceID\":0}}",
            "m_Guid": ""
        },
        "preventRotation": false
    },
    "m_Path": "Shader Graphs",
    "m_GraphPrecision": 1,
    "m_PreviewMode": 2,
    "m_OutputNode": {
        "m_Id": ""
    },
    "m_ActiveTargets": [
        {
            "m_Id": "f52f69787fbe450b997764db170155b8"
        }
    ]
}

{
    "m_SGVersion": 0,
    "m_Type": "UnityEditor.ShaderGraph.Internal.Texture2DShaderProperty",
    "m_ObjectId": "0199bac477b9456f89805e3394d5d854",
    "m_Guid": {
        "m_GuidSerialized": "36ecdc3b-82ed-415d-b2a9-ee244aabde89"
    },
    "m_Name": "Pattern",
    "m_DefaultRefNameVersion": 1,
    "m_RefNameGeneratedByDisplayName": "Pattern",
    "m_DefaultReferenceName": "_Pattern",
    "m_OverrideReferenceName": "",
    "m_GeneratePropertyBlock": true,
    "m_UseCustomSlotLabel": false,
    "m_CustomSlotLabel": "",
    "m_DismissedVersion": 0,
    "m_Precision": 0,
    "overrideHLSLDeclaration": false,
    "hlslDeclarationOverride": 0,
    "m_Hidden": false,
    "m_Value": {
        "m_SerializedTexture": "{\"texture\":{\"fileID\":2800000,\"guid\":\"994a1d2c560d11643939799ec159d22b\",\"type\":3}}",
        "m_Guid": ""
    },
    "isMainTexture": false,
    "useTilingAndOffset": false,
    "m_Modifiable": true,
    "m_DefaultType": 0
}

{
    "m_SGVersion": 0,
    "m_Type": "UnityEditor.ShaderGraph.Vector1MaterialSlot",
    "m_ObjectId": "133bd5198adc4229a0ab7176c3bca64e",
    "m_Id": 1,
    "m_DisplayName": "Alpha",
    "m_SlotType": 1,
    "m_Hidden": false,
    "m_ShaderOutputName": "Alpha",
    "m_StageCapability": 2,
    "m_Value": 0.0,
    "m_DefaultValue": 0.0,
    "m_Labels": []
}

{
    "m_SGVersion": 0,
    "m_Type": "UnityEditor.ShaderGraph.BooleanMaterialSlot",
    "m_ObjectId": "229e3f63515d41f6976ad3e150bbdbef",
    "m_Id": 0,
    "m_DisplayName": "IsHighlighted",
    "m_SlotType": 1,
    "m_Hidden": false,
    "m_ShaderOutputName": "Out",
    "m_StageCapability": 3,
    "m_Value": false,
    "m_DefaultValue": false
}

{
    "m_SGVersion": 0,
    "m_Type": "UnityEditor.ShaderGraph.PropertyNode",
    "m_ObjectId": "2dea7023d0e44b3db64458a57fe5da3f",
    "m_Group": {
        "m_Id": ""
    },
    "m_Name": "Property",
    "m_DrawState": {
        "m_Expanded": true,
        "m_Position": {
            "serializedVersion": "2",
            "x": 1469.0,
            "y": 254.0,
            "width": 122.0,
            "height": 34.0
        }
    },
    "m_Slots": [
        {
            "m_Id": "34382a369e1a4876855e48f394d6c399"
        }
    ],
    "synonyms": [],
    "m_Precision": 0,
    "m_PreviewExpanded": true,
    "m_DismissedVersion": 0,
    "m_PreviewMode": 0,
    "m_CustomColors": {
        "m_SerializableColors": []
    },
    "m_Property": {
        "m_Id": "0199bac477b9456f89805e3394d5d854"
    }
}

{
    "m_SGVersion": 0,
    "m_Type": "UnityEditor.ShaderGraph.PropertyNode",
    "m_ObjectId": "329718114d80489c869468057785378e",
    "m_Group": {
        "m_Id": ""
    },
    "m_Name": "Property",
    "m_DrawState": {
        "m_Expanded": true,
        "m_Position": {
            "serializedVersion": "2",
            "x": 1460.0,
            "y": -135.0,
            "width": 131.0,
            "height": 34.0
        }
    },
    "m_Slots": [
        {
            "m_Id": "585700cd4f004c87891c72f66856af10"
        }
    ],
    "synonyms": [],
    "m_Precision": 0,
    "m_PreviewExpanded": true,
    "m_DismissedVersion": 0,
    "m_PreviewMode": 0,
    "m_CustomColors": {
        "m_SerializableColors": []
    },
    "m_Property": {
        "m_Id": "dfe929a951ca4079a755a21d1d196e8f"
    }
}

{
    "m_SGVersion": 0,
    "m_Type": "UnityEditor.ShaderGraph.Texture2DMaterialSlot",
    "m_ObjectId": "34382a369e1a4876855e48f394d6c399",
    "m_Id": 0,
    "m_DisplayName": "Pattern",
    "m_SlotType": 1,
    "m_Hidden": false,
    "m_ShaderOutputName": "Out",
    "m_StageCapability": 3,
    "m_BareResource": false
}

{
    "m_SGVersion": 0,
    "m_Type": "UnityEditor.ShaderGraph.Vector1MaterialSlot",
    "m_ObjectId": "36a64373f9de4f06910b39c3c3c789c4",
    "m_Id": 0,
    "m_DisplayName": "FloorGradientAlpha",
    "m_SlotType": 1,
    "m_Hidden": false,
    "m_ShaderOutputName": "Out",
    "m_StageCapability": 3,
    "m_Value": 0.0,
    "m_DefaultValue": 0.0,
    "m_Labels": []
}

{
    "m_SGVersion": 0,
    "m_Type": "UnityEditor.ShaderGraph.PropertyNode",
    "m_ObjectId": "3b08293438bf4f198b050cddc3e74668",
    "m_Group": {
        "m_Id": ""
    },
    "m_Name": "Property",
    "m_DrawState": {
        "m_Expanded": true,
        "m_Position": {
            "serializedVersion": "2",
            "x": 1445.0,
            "y": -63.0,
            "width": 146.0,
            "height": 34.0
        }
    },
    "m_Slots": [
        {
            "m_Id": "229e3f63515d41f6976ad3e150bbdbef"
        }
    ],
    "synonyms": [],
    "m_Precision": 0,
    "m_PreviewExpanded": true,
    "m_DismissedVersion": 0,
    "m_PreviewMode": 0,
    "m_CustomColors": {
        "m_SerializableColors": []
    },
    "m_Property": {
        "m_Id": "fd0bc62253644178a6795e849912ae60"
    }
}

{
    "m_SGVersion": 0,
    "m_Type": "UnityEditor.ShaderGraph.Vector1MaterialSlot",
    "m_ObjectId": "3d9e89ae6e954f719ad4b77e956f0df2",
    "m_Id": -890238870,
    "m_DisplayName": "FloorGradientAlpha",
    "m_SlotType": 0,
    "m_Hidden": false,
    "m_ShaderOutputName": "_FloorGradientAlpha",
    "m_StageCapability": 2,
    "m_Value": 0.20000000298023225,
    "m_DefaultValue": 0.0,
    "m_Labels": []
}

{
    "m_SGVersion": 0,
    "m_Type": "UnityEditor.ShaderGraph.BooleanMaterialSlot",
    "m_ObjectId": "3fed491665cd4bf9a6b78491384b1bc3",
    "m_Id": 475148899,
    "m_DisplayName": "IsHighlighted",
    "m_SlotType": 0,
    "m_Hidden": false,
    "m_ShaderOutputName": "_IsHighlighted",
    "m_StageCapability": 3,
    "m_Value": false,
    "m_DefaultValue": false
}

{
    "m_SGVersion": 0,
    "m_Type": "UnityEditor.ShaderGraph.Vector4MaterialSlot",
    "m_ObjectId": "425289fb5d4241d49b7c6b278b280a70",
    "m_Id": 0,
    "m_DisplayName": "ColorHighlighted",
    "m_SlotType": 1,
    "m_Hidden": false,
    "m_ShaderOutputName": "Out",
    "m_StageCapability": 3,
    "m_Value": {
        "x": 0.0,
        "y": 0.0,
        "z": 0.0,
        "w": 0.0
    },
    "m_DefaultValue": {
        "x": 0.0,
        "y": 0.0,
        "z": 0.0,
        "w": 0.0
    },
    "m_Labels": []
}

{
    "m_SGVersion": 1,
    "m_Type": "UnityEditor.ShaderGraph.Internal.Vector1ShaderProperty",
    "m_ObjectId": "433880eafa5840ce922a3451eb144f6e",
    "m_Guid": {
        "m_GuidSerialized": "4e82d53e-cda8-4ed8-8387-e25006535d6d"
    },
    "m_Name": "Fresnel Power",
    "m_DefaultRefNameVersion": 1,
    "m_RefNameGeneratedByDisplayName": "Fresnel Power",
    "m_DefaultReferenceName": "_Fresnel_Power",
    "m_OverrideReferenceName": "",
    "m_GeneratePropertyBlock": true,
    "m_UseCustomSlotLabel": false,
    "m_CustomSlotLabel": "",
    "m_DismissedVersion": 0,
    "m_Precision": 0,
    "overrideHLSLDeclaration": false,
    "hlslDeclarationOverride": 0,
    "m_Hidden": false,
    "m_Value": 5.0,
    "m_FloatType": 0,
    "m_RangeValues": {
        "x": 0.0,
        "y": 1.0
    }
}

{
    "m_SGVersion": 0,
    "m_Type": "UnityEditor.ShaderGraph.Texture2DInputMaterialSlot",
    "m_ObjectId": "4476b333d18d4da88ec858a5f23f0236",
    "m_Id": 1709844762,
    "m_DisplayName": "Pattern",
    "m_SlotType": 0,
    "m_Hidden": false,
    "m_ShaderOutputName": "_Pattern",
    "m_StageCapability": 2,
    "m_BareResource": false,
    "m_Texture": {
        "m_SerializedTexture": "{\"texture\":{\"instanceID\":0}}",
        "m_Guid": ""
    },
    "m_DefaultType": 0
}

{
    "m_SGVersion": 0,
    "m_Type": "UnityEditor.ShaderGraph.BooleanMaterialSlot",
    "m_ObjectId": "4abe795baf4c4a28bb3ad0b307db33ca",
    "m_Id": -1921356817,
    "m_DisplayName": "UseFresnel",
    "m_SlotType": 0,
    "m_Hidden": false,
    "m_ShaderOutputName": "_UseFresnel",
    "m_StageCapability": 2,
    "m_Value": true,
    "m_DefaultValue": false
}

{
    "m_SGVersion": 0,
    "m_Type": "UnityEditor.ShaderGraph.BlockNode",
    "m_ObjectId": "4d22ec4294d64ae799b280d07aeaa501",
    "m_Group": {
        "m_Id": ""
    },
    "m_Name": "VertexDescription.Tangent",
    "m_DrawState": {
        "m_Expanded": true,
        "m_Position": {
            "serializedVersion": "2",
            "x": 0.0,
            "y": 0.0,
            "width": 0.0,
            "height": 0.0
        }
    },
    "m_Slots": [
        {
            "m_Id": "7cc34b6ded084209a9918c1f9a6ba136"
        }
    ],
    "synonyms": [],
    "m_Precision": 0,
    "m_PreviewExpanded": true,
    "m_DismissedVersion": 0,
    "m_PreviewMode": 0,
    "m_CustomColors": {
        "m_SerializableColors": []
    },
    "m_SerializedDescriptor": "VertexDescription.Tangent"
}

{
    "m_SGVersion": 0,
    "m_Type": "UnityEditor.ShaderGraph.Vector4MaterialSlot",
    "m_ObjectId": "5003fd09430d4aafa32f7bb28048dc47",
    "m_Id": 2,
    "m_DisplayName": "Color",
    "m_SlotType": 1,
    "m_Hidden": false,
    "m_ShaderOutputName": "Color",
    "m_StageCapability": 3,
    "m_Value": {
        "x": 0.0,
        "y": 0.0,
        "z": 0.0,
        "w": 0.0
    },
    "m_DefaultValue": {
        "x": 0.0,
        "y": 0.0,
        "z": 0.0,
        "w": 0.0
    },
    "m_Labels": []
}

{
    "m_SGVersion": 1,
    "m_Type": "UnityEditor.ShaderGraph.Internal.Vector1ShaderProperty",
    "m_ObjectId": "5082ec9be9954c6ab89cafb3eec88c54",
    "m_Guid": {
        "m_GuidSerialized": "56083e0b-83db-4d0a-8b2b-925650155f53"
    },
    "m_Name": "Minimum Pattern Visibility",
    "m_DefaultRefNameVersion": 1,
    "m_RefNameGeneratedByDisplayName": "Minimum Pattern Visibility",
    "m_DefaultReferenceName": "_Minimum_Pattern_Visibility",
    "m_OverrideReferenceName": "",
    "m_GeneratePropertyBlock": true,
    "m_UseCustomSlotLabel": false,
    "m_CustomSlotLabel": "",
    "m_DismissedVersion": 0,
    "m_Precision": 0,
    "overrideHLSLDeclaration": false,
    "hlslDeclarationOverride": 0,
    "m_Hidden": false,
    "m_Value": 0.10000000149011612,
    "m_FloatType": 0,
    "m_RangeValues": {
        "x": 0.0,
        "y": 1.0
    }
}

{
    "m_SGVersion": 0,
    "m_Type": "UnityEditor.ShaderGraph.PropertyNode",
    "m_ObjectId": "52904285efbc4f518f1983c4c925c976",
    "m_Group": {
        "m_Id": ""
    },
    "m_Name": "Property",
    "m_DrawState": {
        "m_Expanded": true,
        "m_Position": {
            "serializedVersion": "2",
            "x": 1448.0,
            "y": 316.0,
            "width": 145.0,
            "height": 34.0
        }
    },
    "m_Slots": [
        {
            "m_Id": "eea1cf6aff2d4da0b5a9b1c4bb6cf7eb"
        }
    ],
    "synonyms": [],
    "m_Precision": 0,
    "m_PreviewExpanded": true,
    "m_DismissedVersion": 0,
    "m_PreviewMode": 0,
    "m_CustomColors": {
        "m_SerializableColors": []
    },
    "m_Property": {
        "m_Id": "cf03156aaa704aa5b1110e8382114de7"
    }
}

{
    "m_SGVersion": 0,
    "m_Type": "UnityEditor.ShaderGraph.BooleanMaterialSlot",
    "m_ObjectId": "585700cd4f004c87891c72f66856af10",
    "m_Id": 0,
    "m_DisplayName": "IsHovered",
    "m_SlotType": 1,
    "m_Hidden": false,
    "m_ShaderOutputName": "Out",
    "m_StageCapability": 3,
    "m_Value": false,
    "m_DefaultValue": false
}

{
    "m_SGVersion": 0,
    "m_Type": "UnityEditor.ShaderGraph.PropertyNode",
    "m_ObjectId": "596bf5c591bd407c849320d004f5608b",
    "m_Group": {
        "m_Id": ""
    },
    "m_Name": "Property",
    "m_DrawState": {
        "m_Expanded": true,
        "m_Position": {
            "serializedVersion": "2",
            "x": 1426.39990234375,
            "y": 66.39999389648438,
            "width": 150.4000244140625,
            "height": 33.5999755859375
        }
    },
    "m_Slots": [
        {
            "m_Id": "da660e91d0ba43af8c4863dbbaa59d6c"
        }
    ],
    "synonyms": [],
    "m_Precision": 0,
    "m_PreviewExpanded": true,
    "m_DismissedVersion": 0,
    "m_PreviewMode": 0,
    "m_CustomColors": {
        "m_SerializableColors": []
    },
    "m_Property": {
        "m_Id": "433880eafa5840ce922a3451eb144f6e"
    }
}

{
    "m_SGVersion": 0,
    "m_Type": "UnityEditor.ShaderGraph.Vector1MaterialSlot",
    "m_ObjectId": "64cb73266d394f2982ad3906a4a62e38",
    "m_Id": 0,
    "m_DisplayName": "Minimum Pattern Visibility",
    "m_SlotType": 1,
    "m_Hidden": false,
    "m_ShaderOutputName": "Out",
    "m_StageCapability": 3,
    "m_Value": 0.0,
    "m_DefaultValue": 0.0,
    "m_Labels": []
}

{
    "m_SGVersion": 0,
    "m_Type": "UnityEditor.ShaderGraph.BooleanMaterialSlot",
    "m_ObjectId": "6ca9907acdab4f6e9c3ffd01961a3699",
    "m_Id": 1863792050,
    "m_DisplayName": "UseFloorGradient",
    "m_SlotType": 0,
    "m_Hidden": false,
    "m_ShaderOutputName": "_UseFloorGradient",
    "m_StageCapability": 2,
    "m_Value": true,
    "m_DefaultValue": false
}

{
    "m_SGVersion": 0,
    "m_Type": "UnityEditor.ShaderGraph.BlockNode",
    "m_ObjectId": "6fc39ce4aacd410c8d1f88e0672d4fb2",
    "m_Group": {
        "m_Id": ""
    },
    "m_Name": "SurfaceDescription.Alpha",
    "m_DrawState": {
        "m_Expanded": true,
        "m_Position": {
            "serializedVersion": "2",
            "x": 0.0,
            "y": 0.0,
            "width": 0.0,
            "height": 0.0
        }
    },
    "m_Slots": [
        {
            "m_Id": "736caa58dab8420cbafef992f5cdf071"
        }
    ],
    "synonyms": [],
    "m_Precision": 0,
    "m_PreviewExpanded": true,
    "m_DismissedVersion": 0,
    "m_PreviewMode": 0,
    "m_CustomColors": {
        "m_SerializableColors": []
    },
    "m_SerializedDescriptor": "SurfaceDescription.Alpha"
}

{
    "m_SGVersion": 0,
    "m_Type": "UnityEditor.ShaderGraph.Vector1MaterialSlot",
    "m_ObjectId": "736caa58dab8420cbafef992f5cdf071",
    "m_Id": 0,
    "m_DisplayName": "Alpha",
    "m_SlotType": 0,
    "m_Hidden": false,
    "m_ShaderOutputName": "Alpha",
    "m_StageCapability": 2,
    "m_Value": 1.0,
    "m_DefaultValue": 1.0,
    "m_Labels": []
}

{
    "m_SGVersion": 2,
    "m_Type": "UnityEditor.Rendering.Universal.ShaderGraph.UniversalUnlitSubTarget",
    "m_ObjectId": "74e7faecd0f34bc982fa2ad20b76f29f"
}

{
    "m_SGVersion": 0,
    "m_Type": "UnityEditor.ShaderGraph.Vector4MaterialSlot",
    "m_ObjectId": "7c60b5a882f048cbb921e89f3366a425",
    "m_Id": 1344126265,
    "m_DisplayName": "ColorHighlighted",
    "m_SlotType": 0,
    "m_Hidden": false,
    "m_ShaderOutputName": "_ColorHighlighted",
    "m_StageCapability": 3,
    "m_Value": {
        "x": 0.0,
        "y": 0.0,
        "z": 0.0,
        "w": 0.0
    },
    "m_DefaultValue": {
        "x": 0.0,
        "y": 0.0,
        "z": 0.0,
        "w": 0.0
    },
    "m_Labels": []
}

{
    "m_SGVersion": 0,
    "m_Type": "UnityEditor.ShaderGraph.TangentMaterialSlot",
    "m_ObjectId": "7cc34b6ded084209a9918c1f9a6ba136",
    "m_Id": 0,
    "m_DisplayName": "Tangent",
    "m_SlotType": 0,
    "m_Hidden": false,
    "m_ShaderOutputName": "Tangent",
    "m_StageCapability": 1,
    "m_Value": {
        "x": 0.0,
        "y": 0.0,
        "z": 0.0
    },
    "m_DefaultValue": {
        "x": 0.0,
        "y": 0.0,
        "z": 0.0
    },
    "m_Labels": [],
    "m_Space": 0
}

{
    "m_SGVersion": 0,
    "m_Type": "UnityEditor.ShaderGraph.ColorRGBMaterialSlot",
    "m_ObjectId": "808ef348c2ae4f0b9836ac531a324f39",
    "m_Id": 0,
    "m_DisplayName": "Base Color",
    "m_SlotType": 0,
    "m_Hidden": false,
    "m_ShaderOutputName": "BaseColor",
    "m_StageCapability": 2,
    "m_Value": {
        "x": 0.503000020980835,
        "y": 0.7929167151451111,
        "z": 1.0
    },
    "m_DefaultValue": {
        "x": 0.0,
        "y": 0.0,
        "z": 0.0
    },
    "m_Labels": [],
    "m_ColorMode": 0,
    "m_DefaultColor": {
        "r": 0.5,
        "g": 0.5,
        "b": 0.5,
        "a": 1.0
    }
}

{
    "m_SGVersion": 0,
    "m_Type": "UnityEditor.ShaderGraph.SubGraphNode",
    "m_ObjectId": "867a2b3721b045d3bffb512b001cec45",
    "m_Group": {
        "m_Id": ""
    },
    "m_Name": "Module Capsule Simple SubShader",
    "m_DrawState": {
        "m_Expanded": true,
        "m_Position": {
            "serializedVersion": "2",
            "x": 1756.0,
            "y": -45.0,
            "width": 302.0,
            "height": 470.00006103515627
        }
    },
    "m_Slots": [
        {
            "m_Id": "e92a87c4d40d47ee8e9406ff7083c1aa"
        },
        {
            "m_Id": "3fed491665cd4bf9a6b78491384b1bc3"
        },
        {
            "m_Id": "7c60b5a882f048cbb921e89f3366a425"
        },
        {
            "m_Id": "e5d9cf0dc7774f62ac74cca4d8091d56"
        },
        {
            "m_Id": "4abe795baf4c4a28bb3ad0b307db33ca"
        },
        {
            "m_Id": "d93faecd45664e0c8d6bd20d4cb317c4"
        },
        {
            "m_Id": "6ca9907acdab4f6e9c3ffd01961a3699"
        },
        {
            "m_Id": "3d9e89ae6e954f719ad4b77e956f0df2"
        },
        {
            "m_Id": "e45c7549bd2a46a5a0d9e13df91baf82"
        },
        {
            "m_Id": "875d0ff4233b4439906901a77db09229"
        },
        {
            "m_Id": "4476b333d18d4da88ec858a5f23f0236"
        },
        {
            "m_Id": "e5e1e5f3d93547549d38c4265d1b4480"
        },
        {
            "m_Id": "5003fd09430d4aafa32f7bb28048dc47"
        },
        {
            "m_Id": "133bd5198adc4229a0ab7176c3bca64e"
        }
    ],
    "synonyms": [],
    "m_Precision": 0,
    "m_PreviewExpanded": true,
    "m_DismissedVersion": 0,
    "m_PreviewMode": 0,
    "m_CustomColors": {
        "m_SerializableColors": []
    },
    "m_SerializedSubGraph": "{\n    \"subGraph\": {\n        \"fileID\": -5475051401550479605,\n        \"guid\": \"76a0b6ba561a4914ab3a30e372c95625\",\n        \"type\": 3\n    }\n}",
    "m_PropertyGuids": [
        "88a2330f-d338-47ff-b1f6-5f1bb56765fd",
        "567ff02a-293b-4edf-aaa2-0c08d849fe0c",
        "dd0ae308-417e-4108-a84f-d89ee750c752",
        "7bad006d-724e-42f6-ba44-27419b5f3e8d",
        "e5f0a153-24e7-4023-9052-a832cbbc011a",
        "8cdd2de2-9486-44d1-b044-f86873ce47e2",
        "be7c39d7-e540-4fc8-80ed-678da7f220b1",
        "f4c4cb9a-3310-4640-8a83-6dc91a52031e",
        "b29775e6-d04b-4b45-816d-71287df4d87f",
        "c0589050-7669-4083-b798-522b3c4b9ec4",
        "d41a54b5-2bd6-40ea-b62b-7d40bf5c7d1e",
        "d5fae4e2-e4e0-4e26-9b1b-6ba2f5e825c6"
    ],
    "m_PropertyIds": [
        694645043,
        475148899,
        1344126265,
        -180197118,
        -1921356817,
        1119040423,
        -839662672,
        1709844762,
        -1367655343,
        1863792050,
        -890238870,
        -7146644
    ],
    "m_Dropdowns": [],
    "m_DropdownSelectedEntries": []
}

{
    "m_SGVersion": 0,
    "m_Type": "UnityEditor.ShaderGraph.BooleanMaterialSlot",
    "m_ObjectId": "875d0ff4233b4439906901a77db09229",
    "m_Id": -7146644,
    "m_DisplayName": "UsePatternTexture",
    "m_SlotType": 0,
    "m_Hidden": false,
    "m_ShaderOutputName": "_UsePatternTexture",
    "m_StageCapability": 2,
    "m_Value": true,
    "m_DefaultValue": false
}

{
    "m_SGVersion": 0,
    "m_Type": "UnityEditor.ShaderGraph.PropertyNode",
    "m_ObjectId": "8dfa8e1423fc4d77a1c5a25ad1ad3196",
    "m_Group": {
        "m_Id": ""
    },
    "m_Name": "Property",
    "m_DrawState": {
        "m_Expanded": true,
        "m_Position": {
            "serializedVersion": "2",
            "x": 1381.5999755859375,
            "y": 166.39999389648438,
            "width": 210.4000244140625,
            "height": 33.5999755859375
        }
    },
    "m_Slots": [
        {
            "m_Id": "64cb73266d394f2982ad3906a4a62e38"
        }
    ],
    "synonyms": [],
    "m_Precision": 0,
    "m_PreviewExpanded": true,
    "m_DismissedVersion": 0,
    "m_PreviewMode": 0,
    "m_CustomColors": {
        "m_SerializableColors": []
    },
    "m_Property": {
        "m_Id": "5082ec9be9954c6ab89cafb3eec88c54"
    }
}

{
    "m_SGVersion": 0,
    "m_Type": "UnityEditor.ShaderGraph.BlockNode",
    "m_ObjectId": "9299171b30a14d7b8c64cc1474735bd6",
    "m_Group": {
        "m_Id": ""
    },
    "m_Name": "SurfaceDescription.BaseColor",
    "m_DrawState": {
        "m_Expanded": true,
        "m_Position": {
            "serializedVersion": "2",
            "x": 0.0,
            "y": 0.0,
            "width": 0.0,
            "height": 0.0
        }
    },
    "m_Slots": [
        {
            "m_Id": "808ef348c2ae4f0b9836ac531a324f39"
        }
    ],
    "synonyms": [],
    "m_Precision": 0,
    "m_PreviewExpanded": true,
    "m_DismissedVersion": 0,
    "m_PreviewMode": 0,
    "m_CustomColors": {
        "m_SerializableColors": []
    },
    "m_SerializedDescriptor": "SurfaceDescription.BaseColor"
}

{
    "m_SGVersion": 0,
    "m_Type": "UnityEditor.ShaderGraph.PositionMaterialSlot",
    "m_ObjectId": "94db8c453bac4c25bf6a20cbda64a76a",
    "m_Id": 0,
    "m_DisplayName": "Position",
    "m_SlotType": 0,
    "m_Hidden": false,
    "m_ShaderOutputName": "Position",
    "m_StageCapability": 1,
    "m_Value": {
        "x": 0.0,
        "y": 0.0,
        "z": 0.0
    },
    "m_DefaultValue": {
        "x": 0.0,
        "y": 0.0,
        "z": 0.0
    },
    "m_Labels": [],
    "m_Space": 0
}

{
    "m_SGVersion": 1,
    "m_Type": "UnityEditor.ShaderGraph.Internal.Vector1ShaderProperty",
    "m_ObjectId": "99022f3c2f2f4a448285ade2b76e54b0",
    "m_Guid": {
        "m_GuidSerialized": "f7b85cd4-e26e-4a07-b880-4fee4754fa69"
    },
    "m_Name": "FloorGradientAlpha",
    "m_DefaultRefNameVersion": 1,
    "m_RefNameGeneratedByDisplayName": "FloorGradientAlpha",
    "m_DefaultReferenceName": "_FloorGradientAlpha",
    "m_OverrideReferenceName": "",
    "m_GeneratePropertyBlock": true,
    "m_UseCustomSlotLabel": false,
    "m_CustomSlotLabel": "",
    "m_DismissedVersion": 0,
    "m_Precision": 0,
    "overrideHLSLDeclaration": false,
    "hlslDeclarationOverride": 0,
    "m_Hidden": false,
    "m_Value": 0.20000000298023225,
    "m_FloatType": 0,
    "m_RangeValues": {
        "x": 0.0,
        "y": 1.0
    }
}

{
    "m_SGVersion": 0,
    "m_Type": "UnityEditor.ShaderGraph.Vector4MaterialSlot",
    "m_ObjectId": "a74091a9f18943aabd3b3fb35e86c249",
    "m_Id": 0,
    "m_DisplayName": "ColorNormal",
    "m_SlotType": 1,
    "m_Hidden": false,
    "m_ShaderOutputName": "Out",
    "m_StageCapability": 3,
    "m_Value": {
        "x": 0.0,
        "y": 0.0,
        "z": 0.0,
        "w": 0.0
    },
    "m_DefaultValue": {
        "x": 0.0,
        "y": 0.0,
        "z": 0.0,
        "w": 0.0
    },
    "m_Labels": []
}

{
    "m_SGVersion": 0,
    "m_Type": "UnityEditor.ShaderGraph.PropertyNode",
    "m_ObjectId": "b1c7ef6e7c1f4cc0a3c3695e9016e0c8",
    "m_Group": {
        "m_Id": ""
    },
    "m_Name": "Property",
    "m_DrawState": {
        "m_Expanded": true,
        "m_Position": {
            "serializedVersion": "2",
            "x": 1426.0,
            "y": -29.0,
            "width": 165.0,
            "height": 34.0
        }
    },
    "m_Slots": [
        {
            "m_Id": "425289fb5d4241d49b7c6b278b280a70"
        }
    ],
    "synonyms": [],
    "m_Precision": 0,
    "m_PreviewExpanded": true,
    "m_DismissedVersion": 0,
    "m_PreviewMode": 0,
    "m_CustomColors": {
        "m_SerializableColors": []
    },
    "m_Property": {
        "m_Id": "df3b28bb0bfd4d80a3d65adfa5bc7ca3"
    }
}

{
    "m_SGVersion": 0,
    "m_Type": "UnityEditor.ShaderGraph.PropertyNode",
    "m_ObjectId": "b6917889a21f468f885d20c9d602f6a2",
    "m_Group": {
        "m_Id": ""
    },
    "m_Name": "Property",
    "m_DrawState": {
        "m_Expanded": true,
        "m_Position": {
            "serializedVersion": "2",
            "x": 1448.0,
            "y": 5.0,
            "width": 143.0,
            "height": 34.0
        }
    },
    "m_Slots": [
        {
            "m_Id": "a74091a9f18943aabd3b3fb35e86c249"
        }
    ],
    "synonyms": [],
    "m_Precision": 0,
    "m_PreviewExpanded": true,
    "m_DismissedVersion": 0,
    "m_PreviewMode": 0,
    "m_CustomColors": {
        "m_SerializableColors": []
    },
    "m_Property": {
        "m_Id": "d6a6a51259ea477d85a12dc992774af4"
    }
}

{
    "m_SGVersion": 0,
    "m_Type": "UnityEditor.ShaderGraph.Internal.BooleanShaderProperty",
    "m_ObjectId": "ba4d77ac6c5c4fb0aa3ff91ee491ee31",
    "m_Guid": {
        "m_GuidSerialized": "3d82fc5d-2100-44c1-9488-7fdd2ff60a59"
    },
    "m_Name": "UsePatternTexture",
    "m_DefaultRefNameVersion": 1,
    "m_RefNameGeneratedByDisplayName": "UsePatternTexture",
    "m_DefaultReferenceName": "_UsePatternTexture",
    "m_OverrideReferenceName": "",
    "m_GeneratePropertyBlock": true,
    "m_UseCustomSlotLabel": false,
    "m_CustomSlotLabel": "",
    "m_DismissedVersion": 0,
    "m_Precision": 0,
    "overrideHLSLDeclaration": false,
    "hlslDeclarationOverride": 0,
    "m_Hidden": false,
    "m_Value": true
}

{
    "m_SGVersion": 0,
    "m_Type": "UnityEditor.ShaderGraph.CategoryData",
    "m_ObjectId": "c3cfe769cc884ee1b437afc47a82bb9a",
    "m_Name": "",
    "m_ChildObjectList": [
        {
            "m_Id": "433880eafa5840ce922a3451eb144f6e"
        },
        {
            "m_Id": "d6a6a51259ea477d85a12dc992774af4"
        },
        {
            "m_Id": "df3b28bb0bfd4d80a3d65adfa5bc7ca3"
        },
        {
            "m_Id": "fd0bc62253644178a6795e849912ae60"
        },
        {
            "m_Id": "dfe929a951ca4079a755a21d1d196e8f"
        },
        {
            "m_Id": "ba4d77ac6c5c4fb0aa3ff91ee491ee31"
        },
        {
            "m_Id": "0199bac477b9456f89805e3394d5d854"
        },
        {
            "m_Id": "cf03156aaa704aa5b1110e8382114de7"
        },
        {
            "m_Id": "5082ec9be9954c6ab89cafb3eec88c54"
        },
        {
            "m_Id": "99022f3c2f2f4a448285ade2b76e54b0"
        }
    ]
}

{
    "m_SGVersion": 0,
    "m_Type": "UnityEditor.ShaderGraph.PropertyNode",
    "m_ObjectId": "c96f467a493b43198a865611882b6869",
    "m_Group": {
        "m_Id": ""
    },
    "m_Name": "Property",
    "m_DrawState": {
        "m_Expanded": true,
        "m_Position": {
            "serializedVersion": "2",
            "x": 1426.39990234375,
            "y": 118.39999389648438,
            "width": 176.0,
            "height": 33.5999755859375
        }
    },
    "m_Slots": [
        {
            "m_Id": "36a64373f9de4f06910b39c3c3c789c4"
        }
    ],
    "synonyms": [],
    "m_Precision": 0,
    "m_PreviewExpanded": true,
    "m_DismissedVersion": 0,
    "m_PreviewMode": 0,
    "m_CustomColors": {
        "m_SerializableColors": []
    },
    "m_Property": {
        "m_Id": "99022f3c2f2f4a448285ade2b76e54b0"
    }
}

{
    "m_SGVersion": 1,
    "m_Type": "UnityEditor.ShaderGraph.Internal.Vector1ShaderProperty",
    "m_ObjectId": "cf03156aaa704aa5b1110e8382114de7",
    "m_Guid": {
        "m_GuidSerialized": "846283fd-665c-4977-9530-66ed8edee152"
    },
    "m_Name": "Pattern Tiling",
    "m_DefaultRefNameVersion": 1,
    "m_RefNameGeneratedByDisplayName": "Pattern Tiling",
    "m_DefaultReferenceName": "_Pattern_Tiling",
    "m_OverrideReferenceName": "",
    "m_GeneratePropertyBlock": true,
    "m_UseCustomSlotLabel": false,
    "m_CustomSlotLabel": "",
    "m_DismissedVersion": 0,
    "m_Precision": 0,
    "overrideHLSLDeclaration": false,
    "hlslDeclarationOverride": 0,
    "m_Hidden": false,
    "m_Value": 5.0,
    "m_FloatType": 0,
    "m_RangeValues": {
        "x": 0.0,
        "y": 1.0
    }
}

{
    "m_SGVersion": 0,
    "m_Type": "UnityEditor.ShaderGraph.NormalMaterialSlot",
    "m_ObjectId": "d3b1e2966f2f49778f09aa5921a64c53",
    "m_Id": 0,
    "m_DisplayName": "Normal",
    "m_SlotType": 0,
    "m_Hidden": false,
    "m_ShaderOutputName": "Normal",
    "m_StageCapability": 1,
    "m_Value": {
        "x": 0.0,
        "y": 0.0,
        "z": 0.0
    },
    "m_DefaultValue": {
        "x": 0.0,
        "y": 0.0,
        "z": 0.0
    },
    "m_Labels": [],
    "m_Space": 0
}

{
    "m_SGVersion": 3,
    "m_Type": "UnityEditor.ShaderGraph.Internal.ColorShaderProperty",
    "m_ObjectId": "d6a6a51259ea477d85a12dc992774af4",
    "m_Guid": {
        "m_GuidSerialized": "4d121d62-e3fd-49b4-ba4f-cb6d6f79df2b"
    },
    "m_Name": "ColorNormal",
    "m_DefaultRefNameVersion": 1,
    "m_RefNameGeneratedByDisplayName": "ColorNormal",
    "m_DefaultReferenceName": "_ColorNormal",
    "m_OverrideReferenceName": "",
    "m_GeneratePropertyBlock": true,
    "m_UseCustomSlotLabel": false,
    "m_CustomSlotLabel": "",
    "m_DismissedVersion": 0,
    "m_Precision": 0,
    "overrideHLSLDeclaration": false,
    "hlslDeclarationOverride": 0,
    "m_Hidden": false,
    "m_Value": {
        "r": 1.0,
        "g": 1.0,
        "b": 1.0,
        "a": 0.0
    },
    "isMainColor": false,
    "m_ColorMode": 0
}

{
    "m_SGVersion": 0,
    "m_Type": "UnityEditor.ShaderGraph.BlockNode",
    "m_ObjectId": "d70e20308a2d4ca38c420fa18ef5eb37",
    "m_Group": {
        "m_Id": ""
    },
    "m_Name": "VertexDescription.Normal",
    "m_DrawState": {
        "m_Expanded": true,
        "m_Position": {
            "serializedVersion": "2",
            "x": 0.0,
            "y": 0.0,
            "width": 0.0,
            "height": 0.0
        }
    },
    "m_Slots": [
        {
            "m_Id": "d3b1e2966f2f49778f09aa5921a64c53"
        }
    ],
    "synonyms": [],
    "m_Precision": 0,
    "m_PreviewExpanded": true,
    "m_DismissedVersion": 0,
    "m_PreviewMode": 0,
    "m_CustomColors": {
        "m_SerializableColors": []
    },
    "m_SerializedDescriptor": "VertexDescription.Normal"
}

{
    "m_SGVersion": 0,
    "m_Type": "UnityEditor.ShaderGraph.PropertyNode",
    "m_ObjectId": "d749df2843a1466d89299cbffffe1910",
    "m_Group": {
        "m_Id": ""
    },
    "m_Name": "Property",
    "m_DrawState": {
        "m_Expanded": true,
        "m_Position": {
            "serializedVersion": "2",
            "x": 1400.7999267578125,
            "y": 208.80001831054688,
            "width": 176.800048828125,
            "height": 33.5999755859375
        }
    },
    "m_Slots": [
        {
            "m_Id": "ec4c7589036f45648754542dd8cd28e5"
        }
    ],
    "synonyms": [],
    "m_Precision": 0,
    "m_PreviewExpanded": true,
    "m_DismissedVersion": 0,
    "m_PreviewMode": 0,
    "m_CustomColors": {
        "m_SerializableColors": []
    },
    "m_Property": {
        "m_Id": "ba4d77ac6c5c4fb0aa3ff91ee491ee31"
    }
}

{
    "m_SGVersion": 0,
    "m_Type": "UnityEditor.ShaderGraph.Vector1MaterialSlot",
    "m_ObjectId": "d93faecd45664e0c8d6bd20d4cb317c4",
    "m_Id": -839662672,
    "m_DisplayName": "Fresnel Power",
    "m_SlotType": 0,
    "m_Hidden": false,
    "m_ShaderOutputName": "_Fresnel_Power",
    "m_StageCapability": 2,
    "m_Value": 0.0,
    "m_DefaultValue": 0.0,
    "m_Labels": []
}

{
    "m_SGVersion": 0,
    "m_Type": "UnityEditor.ShaderGraph.Vector1MaterialSlot",
    "m_ObjectId": "da660e91d0ba43af8c4863dbbaa59d6c",
    "m_Id": 0,
    "m_DisplayName": "Fresnel Power",
    "m_SlotType": 1,
    "m_Hidden": false,
    "m_ShaderOutputName": "Out",
    "m_StageCapability": 3,
    "m_Value": 0.0,
    "m_DefaultValue": 0.0,
    "m_Labels": []
}

{
    "m_SGVersion": 0,
    "m_Type": "UnityEditor.ShaderGraph.BlockNode",
    "m_ObjectId": "dd4debc40f2a43daa806533480340e4b",
    "m_Group": {
        "m_Id": ""
    },
    "m_Name": "VertexDescription.Position",
    "m_DrawState": {
        "m_Expanded": true,
        "m_Position": {
            "serializedVersion": "2",
            "x": 0.0,
            "y": 0.0,
            "width": 0.0,
            "height": 0.0
        }
    },
    "m_Slots": [
        {
            "m_Id": "94db8c453bac4c25bf6a20cbda64a76a"
        }
    ],
    "synonyms": [],
    "m_Precision": 0,
    "m_PreviewExpanded": true,
    "m_DismissedVersion": 0,
    "m_PreviewMode": 0,
    "m_CustomColors": {
        "m_SerializableColors": []
    },
    "m_SerializedDescriptor": "VertexDescription.Position"
}

{
    "m_SGVersion": 3,
    "m_Type": "UnityEditor.ShaderGraph.Internal.ColorShaderProperty",
    "m_ObjectId": "df3b28bb0bfd4d80a3d65adfa5bc7ca3",
    "m_Guid": {
        "m_GuidSerialized": "6ba5cde8-b360-464c-8d94-89e0adeb284b"
    },
    "m_Name": "ColorHighlighted",
    "m_DefaultRefNameVersion": 1,
    "m_RefNameGeneratedByDisplayName": "ColorHighlighted",
    "m_DefaultReferenceName": "_ColorHighlighted",
    "m_OverrideReferenceName": "",
    "m_GeneratePropertyBlock": true,
    "m_UseCustomSlotLabel": false,
    "m_CustomSlotLabel": "",
    "m_DismissedVersion": 0,
    "m_Precision": 0,
    "overrideHLSLDeclaration": false,
    "hlslDeclarationOverride": 0,
    "m_Hidden": false,
    "m_Value": {
        "r": 1.0,
        "g": 0.4166666865348816,
        "b": 0.0,
        "a": 0.0
    },
    "isMainColor": false,
    "m_ColorMode": 0
}

{
    "m_SGVersion": 0,
    "m_Type": "UnityEditor.ShaderGraph.Internal.BooleanShaderProperty",
    "m_ObjectId": "dfe929a951ca4079a755a21d1d196e8f",
    "m_Guid": {
        "m_GuidSerialized": "f51b8827-1bd8-4522-8745-a14e7356fa3b"
    },
    "m_Name": "IsHovered",
    "m_DefaultRefNameVersion": 1,
    "m_RefNameGeneratedByDisplayName": "IsHovered",
    "m_DefaultReferenceName": "_IsHovered",
    "m_OverrideReferenceName": "",
    "m_GeneratePropertyBlock": true,
    "m_UseCustomSlotLabel": false,
    "m_CustomSlotLabel": "",
    "m_DismissedVersion": 0,
    "m_Precision": 0,
    "overrideHLSLDeclaration": false,
    "hlslDeclarationOverride": 0,
    "m_Hidden": false,
    "m_Value": false
}

{
    "m_SGVersion": 0,
    "m_Type": "UnityEditor.ShaderGraph.Vector1MaterialSlot",
    "m_ObjectId": "e45c7549bd2a46a5a0d9e13df91baf82",
    "m_Id": 1119040423,
    "m_DisplayName": "Minimum Pattern Visibility",
    "m_SlotType": 0,
    "m_Hidden": false,
    "m_ShaderOutputName": "_Minimum_Pattern_Visibility",
    "m_StageCapability": 2,
    "m_Value": 0.0,
    "m_DefaultValue": 0.0,
    "m_Labels": []
}

{
    "m_SGVersion": 0,
    "m_Type": "UnityEditor.ShaderGraph.Vector4MaterialSlot",
    "m_ObjectId": "e5d9cf0dc7774f62ac74cca4d8091d56",
    "m_Id": -180197118,
    "m_DisplayName": "ColorNormal",
    "m_SlotType": 0,
    "m_Hidden": false,
    "m_ShaderOutputName": "_ColorNormal",
    "m_StageCapability": 3,
    "m_Value": {
        "x": 0.0,
        "y": 0.0,
        "z": 0.0,
        "w": 0.0
    },
    "m_DefaultValue": {
        "x": 0.0,
        "y": 0.0,
        "z": 0.0,
        "w": 0.0
    },
    "m_Labels": []
}

{
    "m_SGVersion": 0,
    "m_Type": "UnityEditor.ShaderGraph.Vector1MaterialSlot",
    "m_ObjectId": "e5e1e5f3d93547549d38c4265d1b4480",
    "m_Id": -1367655343,
    "m_DisplayName": "Pattern Tiling",
    "m_SlotType": 0,
    "m_Hidden": false,
    "m_ShaderOutputName": "_Pattern_Tiling",
    "m_StageCapability": 2,
    "m_Value": 0.0,
    "m_DefaultValue": 0.0,
    "m_Labels": []
}

{
    "m_SGVersion": 0,
    "m_Type": "UnityEditor.ShaderGraph.BooleanMaterialSlot",
    "m_ObjectId": "e92a87c4d40d47ee8e9406ff7083c1aa",
    "m_Id": 694645043,
    "m_DisplayName": "IsHovered",
    "m_SlotType": 0,
    "m_Hidden": false,
    "m_ShaderOutputName": "_IsHovered",
    "m_StageCapability": 2,
    "m_Value": false,
    "m_DefaultValue": false
}

{
    "m_SGVersion": 0,
    "m_Type": "UnityEditor.ShaderGraph.BooleanMaterialSlot",
    "m_ObjectId": "ec4c7589036f45648754542dd8cd28e5",
    "m_Id": 0,
    "m_DisplayName": "UsePatternTexture",
    "m_SlotType": 1,
    "m_Hidden": false,
    "m_ShaderOutputName": "Out",
    "m_StageCapability": 3,
    "m_Value": false,
    "m_DefaultValue": false
}

{
    "m_SGVersion": 0,
    "m_Type": "UnityEditor.ShaderGraph.Vector1MaterialSlot",
    "m_ObjectId": "eea1cf6aff2d4da0b5a9b1c4bb6cf7eb",
    "m_Id": 0,
    "m_DisplayName": "Pattern Tiling",
    "m_SlotType": 1,
    "m_Hidden": false,
    "m_ShaderOutputName": "Out",
    "m_StageCapability": 3,
    "m_Value": 0.0,
    "m_DefaultValue": 0.0,
    "m_Labels": []
}

{
    "m_SGVersion": 1,
    "m_Type": "UnityEditor.Rendering.Universal.ShaderGraph.UniversalTarget",
    "m_ObjectId": "f52f69787fbe450b997764db170155b8",
    "m_Datas": [],
    "m_ActiveSubTarget": {
        "m_Id": "74e7faecd0f34bc982fa2ad20b76f29f"
    },
    "m_AllowMaterialOverride": false,
    "m_SurfaceType": 1,
    "m_ZTestMode": 4,
    "m_ZWriteControl": 0,
    "m_AlphaMode": 0,
    "m_RenderFace": 2,
    "m_AlphaClip": false,
    "m_CastShadows": false,
    "m_ReceiveShadows": false,
    "m_SupportsLODCrossFade": false,
    "m_CustomEditorGUI": "",
    "m_SupportVFX": false
}

{
    "m_SGVersion": 0,
    "m_Type": "UnityEditor.ShaderGraph.Internal.BooleanShaderProperty",
    "m_ObjectId": "fd0bc62253644178a6795e849912ae60",
    "m_Guid": {
        "m_GuidSerialized": "2233ddfc-1177-49a7-9527-356a458f5aaf"
    },
    "m_Name": "IsHighlighted",
    "m_DefaultRefNameVersion": 1,
    "m_RefNameGeneratedByDisplayName": "IsHighlighted",
    "m_DefaultReferenceName": "_IsHighlighted",
    "m_OverrideReferenceName": "",
    "m_GeneratePropertyBlock": true,
    "m_UseCustomSlotLabel": false,
    "m_CustomSlotLabel": "",
    "m_DismissedVersion": 0,
    "m_Precision": 0,
    "overrideHLSLDeclaration": false,
    "hlslDeclarationOverride": 0,
    "m_Hidden": false,
    "m_Value": false
}

