%YAML 1.1
%TAG !u! tag:unity3d.com,2011:
--- !u!114 &11400000
MonoBehaviour:
  m_ObjectHideFlags: 0
  m_CorrespondingSourceObject: {fileID: 0}
  m_PrefabInstance: {fileID: 0}
  m_PrefabAsset: {fileID: 0}
  m_GameObject: {fileID: 0}
  m_Enabled: 1
  m_EditorHideFlags: 0
  m_Script: {fileID: 11500000, guid: e90911e410742a1498a167540c7865bf, type: 3}
  m_Name: Capsule Pose
  m_EditorClassIdentifier: 
  leftHand:
    inputSource: 1
    thumbFingerMovementType: 0
    indexFingerMovementType: 0
    middleFingerMovementType: 0
    ringFingerMovementType: 0
    pinkyFingerMovementType: 0
    ignoreRootPoseData: 1
    ignoreWristPoseData: 1
    position: {x: 0.033209592, y: -0.03673246, z: -0.073500894}
    rotation: {x: -0.2008941, y: 0.26383883, z: -0.64586884, w: -0.6876657}
    bonePositions:
    - {x: -0, y: 0, z: 0}
    - {x: -0.034037687, y: 0.03650266, z: 0.16472164}
    - {x: -0.012083233, y: 0.028070247, z: 0.025049694}
    - {x: 0.040405963, y: -0.000000051561553, z: 0.000000045447194}
    - {x: 0.032516792, y: -0.000000051137583, z: -0.000000012933195}
    - {x: 0.030463902, y: 0.00000016269207, z: 0.0000000792839}
    - {x: 0.0006324522, y: 0.026866155, z: 0.015001948}
    - {x: 0.074204385, y: 0.005002201, z: -0.00023377323}
    - {x: 0.043930072, y: 0.000000059567498, z: 0.00000018367103}
    - {x: 0.02869547, y: -0.00000009398158, z: -0.00000012649753}
    - {x: 0.022821384, y: -0.00000014365155, z: 0.00000007651614}
    - {x: 0.0021773134, y: 0.007119544, z: 0.016318738}
    - {x: 0.07095288, y: -0.00077883265, z: -0.000997186}
    - {x: 0.043108486, y: -0.00000009950596, z: -0.0000000067041825}
    - {x: 0.033266045, y: -0.00000001320567, z: -0.000000021670374}
    - {x: 0.025892371, y: 0.00000009984198, z: -0.0000000020352908}
    - {x: 0.0005134356, y: -0.0065451227, z: 0.016347693}
    - {x: 0.06587581, y: -0.0017857892, z: -0.00069344096}
    - {x: 0.04069671, y: -0.000000095347104, z: -0.000000022934731}
    - {x: 0.028746964, y: 0.00000010089892, z: 0.000000045306827}
    - {x: 0.022430236, y: 0.00000010846127, z: -0.000000017428562}
    - {x: -0.002478151, y: -0.01898137, z: 0.015213584}
    - {x: 0.0628784, y: -0.0028440945, z: -0.0003315112}
    - {x: 0.030219711, y: -0.00000003418319, z: -0.00000009332872}
    - {x: 0.018186597, y: -0.0000000050220166, z: -0.00000020934549}
    - {x: 0.01801794, y: -0.0000000200012, z: 0.0000000659746}
    - {x: -0.0060591106, y: 0.05628522, z: 0.060063843}
    - {x: -0.04041555, y: -0.043017667, z: 0.019344581}
    - {x: -0.03935372, y: -0.07567404, z: 0.047048334}
    - {x: -0.038340144, y: -0.09098663, z: 0.08257892}
    - {x: -0.031805996, y: -0.08721431, z: 0.12101539}
    boneRotations:
    - {x: -6.123234e-17, y: 1, z: 6.123234e-17, w: -0.00000004371139}
    - {x: -0.078608155, y: -0.92027926, z: 0.3792963, w: -0.055146642}
    - {x: -0.35283417, y: -0.7875045, z: 0.21859895, w: 0.4555867}
    - {x: 0.09170787, y: 0.003354816, z: -0.21438645, w: 0.9724283}
    - {x: 0.048251238, y: 0.015671832, z: -0.06623789, w: 0.9965133}
    - {x: -1.3877788e-17, y: -1.3877788e-17, z: -5.551115e-17, w: 1}
    - {x: -0.6442515, y: -0.42213318, z: -0.4782025, w: 0.42197865}
    - {x: 0.11894858, y: -0.01677452, z: -0.23290357, w: 0.96505225}
    - {x: -0.0066276845, y: 0.00055369164, z: -0.20121728, w: 0.9795241}
    - {x: -0.07890179, y: 0.019703558, z: -0.25080773, w: 0.96461487}
    - {x: 6.938894e-18, y: 1.9428903e-16, z: -1.348151e-33, w: 1}
    - {x: -0.546723, y: -0.46074906, z: -0.44252017, w: 0.54127645}
    - {x: -0.10200617, y: -0.00063990057, z: -0.11493406, w: 0.98812175}
    - {x: 0.045527723, y: 0.01668084, z: -0.2670356, w: 0.9624661}
    - {x: -0.121468514, y: -0.004546412, z: -0.23817329, w: 0.96358615}
    - {x: 1.1639192e-17, y: -5.602331e-17, z: -0.040125635, w: 0.9991947}
    - {x: -0.5166922, y: -0.4298879, z: -0.49554786, w: 0.5501435}
    - {x: -0.19831456, y: 0.08931198, z: -0.16192164, w: 0.96253633}
    - {x: 0.003518789, y: -0.017742801, z: -0.18621315, w: 0.98234284}
    - {x: 0.019942874, y: -0.0063706217, z: -0.29831564, w: 0.9542377}
    - {x: 6.938894e-18, y: -9.62965e-35, z: -1.3877788e-17, w: 1}
    - {x: -0.48095965, y: -0.34524593, z: -0.6430762, w: 0.48573261}
    - {x: -0.17253436, y: 0.029375684, z: -0.25457427, w: 0.95108414}
    - {x: -0.043018676, y: 0.074682444, z: -0.22454439, w: 0.97064507}
    - {x: 0.06564302, y: 0.027265621, z: -0.18959998, w: 0.97928524}
    - {x: 0, y: 0, z: 1.9081958e-17, w: 1}
    - {x: 0.20274544, y: 0.59426665, z: 0.2494411, w: 0.73723847}
    - {x: 0.6235274, y: -0.66380864, z: -0.29373443, w: -0.29033053}
    - {x: 0.6780625, y: -0.6592852, z: -0.26568344, w: -0.18704711}
    - {x: 0.7367927, y: -0.6347571, z: -0.14393571, w: -0.18303718}
    - {x: 0.7584072, y: -0.6393418, z: -0.12667806, w: -0.0036594148}
  rightHand:
    inputSource: 2
    thumbFingerMovementType: 0
    indexFingerMovementType: 0
    middleFingerMovementType: 0
    ringFingerMovementType: 0
    pinkyFingerMovementType: 0
    ignoreRootPoseData: 1
    ignoreWristPoseData: 1
    position: {x: -0.033209592, y: -0.03673246, z: -0.073500894}
    rotation: {x: 0.2008941, y: 0.26383883, z: -0.64586884, w: 0.6876657}
    bonePositions:
    - {x: -0, y: 0, z: 0}
    - {x: -0.034037687, y: 0.03650266, z: 0.16472164}
    - {x: -0.012083233, y: 0.028070247, z: 0.025049694}
    - {x: 0.040405963, y: -0.000000051561553, z: 0.000000045447194}
    - {x: 0.032516792, y: -0.000000051137583, z: -0.000000012933195}
    - {x: 0.030463902, y: 0.00000016269207, z: 0.0000000792839}
    - {x: 0.0006324522, y: 0.026866155, z: 0.015001948}
    - {x: 0.074204385, y: 0.005002201, z: -0.00023377323}
    - {x: 0.043930072, y: 0.000000059567498, z: 0.00000018367103}
    - {x: 0.02869547, y: -0.00000009398158, z: -0.00000012649753}
    - {x: 0.022821384, y: -0.00000014365155, z: 0.00000007651614}
    - {x: 0.0021773134, y: 0.007119544, z: 0.016318738}
    - {x: 0.07095288, y: -0.00077883265, z: -0.000997186}
    - {x: 0.043108486, y: -0.00000009950596, z: -0.0000000067041825}
    - {x: 0.033266045, y: -0.00000001320567, z: -0.000000021670374}
    - {x: 0.025892371, y: 0.00000009984198, z: -0.0000000020352908}
    - {x: 0.0005134356, y: -0.0065451227, z: 0.016347693}
    - {x: 0.06587581, y: -0.0017857892, z: -0.00069344096}
    - {x: 0.04069671, y: -0.000000095347104, z: -0.000000022934731}
    - {x: 0.028746964, y: 0.00000010089892, z: 0.000000045306827}
    - {x: 0.022430236, y: 0.00000010846127, z: -0.000000017428562}
    - {x: -0.002478151, y: -0.01898137, z: 0.015213584}
    - {x: 0.0628784, y: -0.0028440945, z: -0.0003315112}
    - {x: 0.030219711, y: -0.00000003418319, z: -0.00000009332872}
    - {x: 0.018186597, y: -0.0000000050220166, z: -0.00000020934549}
    - {x: 0.01801794, y: -0.0000000200012, z: 0.0000000659746}
    - {x: -0.0060591106, y: 0.05628522, z: 0.060063843}
    - {x: -0.04041555, y: -0.043017667, z: 0.019344581}
    - {x: -0.03935372, y: -0.07567404, z: 0.047048334}
    - {x: -0.038340144, y: -0.09098663, z: 0.08257892}
    - {x: -0.031805996, y: -0.08721431, z: 0.12101539}
    boneRotations:
    - {x: -6.123234e-17, y: 1, z: 6.123234e-17, w: -0.00000004371139}
    - {x: -0.078608155, y: -0.92027926, z: 0.3792963, w: -0.055146642}
    - {x: -0.35283417, y: -0.7875045, z: 0.21859895, w: 0.4555867}
    - {x: 0.09170787, y: 0.003354816, z: -0.21438645, w: 0.9724283}
    - {x: 0.048251238, y: 0.015671832, z: -0.06623789, w: 0.9965133}
    - {x: -1.3877788e-17, y: -1.3877788e-17, z: -5.551115e-17, w: 1}
    - {x: -0.6442515, y: -0.42213318, z: -0.4782025, w: 0.42197865}
    - {x: 0.11894858, y: -0.01677452, z: -0.23290357, w: 0.96505225}
    - {x: -0.0066276845, y: 0.00055369164, z: -0.20121728, w: 0.9795241}
    - {x: -0.07890179, y: 0.019703558, z: -0.25080773, w: 0.96461487}
    - {x: 6.938894e-18, y: 1.9428903e-16, z: -1.348151e-33, w: 1}
    - {x: -0.546723, y: -0.46074906, z: -0.44252017, w: 0.54127645}
    - {x: -0.10200617, y: -0.00063990057, z: -0.11493406, w: 0.98812175}
    - {x: 0.045527723, y: 0.01668084, z: -0.2670356, w: 0.9624661}
    - {x: -0.121468514, y: -0.004546412, z: -0.23817329, w: 0.96358615}
    - {x: 1.1639192e-17, y: -5.602331e-17, z: -0.040125635, w: 0.9991947}
    - {x: -0.5166922, y: -0.4298879, z: -0.49554786, w: 0.5501435}
    - {x: -0.19831456, y: 0.08931198, z: -0.16192164, w: 0.96253633}
    - {x: 0.003518789, y: -0.017742801, z: -0.18621315, w: 0.98234284}
    - {x: 0.019942874, y: -0.0063706217, z: -0.29831564, w: 0.9542377}
    - {x: 6.938894e-18, y: -9.62965e-35, z: -1.3877788e-17, w: 1}
    - {x: -0.48095965, y: -0.34524593, z: -0.6430762, w: 0.48573261}
    - {x: -0.17253436, y: 0.029375684, z: -0.25457427, w: 0.95108414}
    - {x: -0.043018676, y: 0.074682444, z: -0.22454439, w: 0.97064507}
    - {x: 0.06564302, y: 0.027265621, z: -0.18959998, w: 0.97928524}
    - {x: 0, y: 0, z: 1.9081958e-17, w: 1}
    - {x: 0.20274544, y: 0.59426665, z: 0.2494411, w: 0.73723847}
    - {x: 0.6235274, y: -0.66380864, z: -0.29373443, w: -0.29033053}
    - {x: 0.6780625, y: -0.6592852, z: -0.26568344, w: -0.18704711}
    - {x: 0.7367927, y: -0.6347571, z: -0.14393571, w: -0.18303718}
    - {x: 0.7584072, y: -0.6393418, z: -0.12667806, w: -0.0036594148}
  applyToSkeletonRoot: 1
