%YAML 1.1
%TAG !u! tag:unity3d.com,2011:
--- !u!114 &-3309421908558915618
MonoBehaviour:
  m_ObjectHideFlags: 11
  m_CorrespondingSourceObject: {fileID: 0}
  m_PrefabInstance: {fileID: 0}
  m_PrefabAsset: {fileID: 0}
  m_GameObject: {fileID: 0}
  m_Enabled: 1
  m_EditorHideFlags: 0
  m_Script: {fileID: 11500000, guid: d0353a89b1f911e48b9e16bdc9f2e058, type: 3}
  m_Name: 
  m_EditorClassIdentifier: 
  version: 7
--- !u!21 &2100000
Material:
  serializedVersion: 8
  m_ObjectHideFlags: 0
  m_CorrespondingSourceObject: {fileID: 0}
  m_PrefabInstance: {fileID: 0}
  m_PrefabAsset: {fileID: 0}
  m_Name: RadialSegmentedHealthBarMaterial
  m_Shader: {fileID: -6465566751694194690, guid: 643419cc302e3ca4aa2c2078567514e2,
    type: 3}
  m_Parent: {fileID: 0}
  m_ModifiedSerializedProperties: 0
  m_ValidKeywords: []
  m_InvalidKeywords:
  - _DOUBLESIDED_ON
  - _SURFACE_TYPE_TRANSPARENT
  m_LightmapFlags: 4
  m_EnableInstancingVariants: 0
  m_DoubleSidedGI: 1
  m_CustomRenderQueue: 3000
  stringTagMap: {}
  disabledShaderPasses:
  - TransparentDepthPrepass
  - TransparentDepthPostpass
  - TransparentBackface
  m_LockedProperties: 
  m_SavedProperties:
    serializedVersion: 3
    m_TexEnvs:
    - _BorderTexture:
        m_Texture: {fileID: 0}
        m_Scale: {x: 1, y: 1}
        m_Offset: {x: 0, y: 0}
    - _EmptyGradient:
        m_Texture: {fileID: 0}
        m_Scale: {x: 1, y: 1}
        m_Offset: {x: 0, y: 0}
    - _EmptyTexture:
        m_Texture: {fileID: 0}
        m_Scale: {x: 1, y: 1}
        m_Offset: {x: 0, y: 0}
    - _InnerGradient:
        m_Texture: {fileID: 0}
        m_Scale: {x: 1, y: 1}
        m_Offset: {x: 0, y: 0}
    - _InnerTexture:
        m_Texture: {fileID: 0}
        m_Scale: {x: 1, y: 1}
        m_Offset: {x: 0, y: 0}
    - _MainTex:
        m_Texture: {fileID: 2800000, guid: 13efb9db952f17841b249a65a1e1122d, type: 3}
        m_Scale: {x: 1, y: 1}
        m_Offset: {x: 0, y: 0}
    - _OverlayTexture:
        m_Texture: {fileID: 0}
        m_Scale: {x: 1, y: 1}
        m_Offset: {x: 0, y: 0}
    - _SpaceTexture:
        m_Texture: {fileID: 0}
        m_Scale: {x: 1, y: 1}
        m_Offset: {x: 0, y: 0}
    - _VariableWidthCurve:
        m_Texture: {fileID: 0}
        m_Scale: {x: 1, y: 1}
        m_Offset: {x: 0, y: 0}
    - unity_Lightmaps:
        m_Texture: {fileID: 0}
        m_Scale: {x: 1, y: 1}
        m_Offset: {x: 0, y: 0}
    - unity_LightmapsInd:
        m_Texture: {fileID: 0}
        m_Scale: {x: 1, y: 1}
        m_Offset: {x: 0, y: 0}
    - unity_ShadowMasks:
        m_Texture: {fileID: 0}
        m_Scale: {x: 1, y: 1}
        m_Offset: {x: 0, y: 0}
    m_Ints: []
    m_Floats:
    - BORDER_TEXTURE: 0
    - CONTENT_NOISE: 0
    - EMPTY_NOISE: 1
    - EMPTY_TEXTURE: 0
    - INNER_TEXTURE: 0
    - OVERLAY_NOISE: 0
    - OVERLAY_TEXTURE: 0
    - PULSATE_WHEN_LOW: 1
    - SPACE_TEXTURE: 0
    - Vector1_5F1B012: 59.6
    - Vector1_ECC2C9F3: 5.5
    - Vector1_F9D53FA9: 0
    - _AddPrecomputedVelocity: 0
    - _AlignBorderTexture: 1
    - _AlignEmptyTexture: 1
    - _AlignInnerTexture: 1
    - _AlignSpaceTexture: 1
    - _AlphaCutoffEnable: 0
    - _AlphaDstBlend: 10
    - _AlphaSrcBlend: 1
    - _AlphaToMask: 0
    - _AlphaToMaskInspectorValue: 0
    - _Arc: 0.4
    - _BlendMode: 0
    - _BorderSpacing: 0.02
    - _BorderTextureOpacity: 1
    - _BorderTextureScaleWithSegments: 1
    - _BorderWidth: 0.02
    - _ContentNoiseEnabled: 0
    - _ContentNoiseScale: 100
    - _ContentNoiseStrength: 0.2
    - _CullMode: 0
    - _CullModeForward: 0
    - _DepthOffsetEnable: 0
    - _DoubleSidedEnable: 1
    - _DoubleSidedNormalMode: 2
    - _DstBlend: 10
    - _EmptyGradientEnabled: 1
    - _EmptyNoiseEnabled: 1
    - _EmptyNoiseScale: 100
    - _EmptyNoiseStrength: 0.5
    - _EmptyTextureOpacity: 1
    - _EmptyTextureScaleWithSegments: 1
    - _EnableBlendModePreserveSpecularLighting: 0
    - _EnableFogOnTransparent: 0
    - _FillClockwise: 1
    - _InnerGradientEnabled: 1
    - _InnerTextureOpacity: 1
    - _InnerTextureScaleWithSegments: 1
    - _LineWidth: 0.038
    - _OpaqueCullMode: 2
    - _OverlayNoiseEnabled: 0
    - _OverlayNoiseScale: 100
    - _OverlayNoiseStrength: 0.5
    - _OverlayTextureOpacity: 1
    - _PulsateWhenLow: 0
    - _PulseActivationThreshold: 0.5
    - _PulseSpeed: 10
    - _QueueControl: 1
    - _QueueOffset: 0
    - _Radius: 0.402
    - _RemoveBorder: 0.5
    - _RemoveSegments: 0
    - _RenderQueueType: 3
    - _Rotation: 45
    - _SecondRemoveSegments: 0.5
    - _SegmentCount: 5
    - _SegmentSpacing: 0.024
    - _SpaceTextureOpacity: 1
    - _SrcBlend: 1
    - _StencilRef: 0
    - _StencilRefDepth: 0
    - _StencilRefDistortionVec: 4
    - _StencilRefGBuffer: 2
    - _StencilRefMV: 32
    - _StencilWriteMask: 6
    - _StencilWriteMaskDepth: 8
    - _StencilWriteMaskDistortionVec: 4
    - _StencilWriteMaskGBuffer: 14
    - _StencilWriteMaskMV: 40
    - _SurfaceType: 1
    - _TransparentBackfaceEnable: 0
    - _TransparentCullMode: 2
    - _TransparentDepthPostpassEnable: 0
    - _TransparentDepthPrepassEnable: 0
    - _TransparentSortPriority: 0
    - _TransparentWritingMotionVec: 0
    - _TransparentZWrite: 0
    - _UseShadowThreshold: 0
    - _ValueAsGradientTimeEmpty: 0
    - _ValueAsGradientTimeInner: 0
    - _ZTestDepthEqualForOpaque: 4
    - _ZTestGBuffer: 4
    - _ZTestTransparent: 4
    - _ZWrite: 0
    m_Colors:
    - _BorderColor: {r: 2, g: 2, b: 2, a: 1}
    - _BorderTextureOffset: {r: 0, g: 0, b: 0, a: 0}
    - _BorderTextureTiling: {r: 1, g: 1, b: 0, a: 0}
    - _Color: {r: 0.13762379, g: 0, b: 1, a: 1}
    - _ContentNoiseOffset: {r: 0, g: 0, b: 0, a: 0}
    - _DoubleSidedConstants: {r: 1, g: 1, b: -1, a: 0}
    - _EmissionColor: {r: 1, g: 1, b: 1, a: 1}
    - _EmptyColor: {r: 0.3584906, g: 0.3466536, b: 0.3466536, a: 1}
    - _EmptyNoiseOffset: {r: 0, g: 0, b: 0, a: 0}
    - _EmptyTextureOffset: {r: 0, g: 0, b: 0, a: 0}
    - _EmptyTextureTiling: {r: 1, g: 1, b: 0, a: 0}
    - _InnerColor: {r: 2, g: 0, b: 0, a: 1}
    - _InnerTextureOffset: {r: 0, g: 0, b: 0, a: 0}
    - _InnerTextureTiling: {r: 1, g: 1, b: 0, a: 0}
    - _Offset: {r: 0, g: 0, b: 0, a: 0}
    - _OverlayColor: {r: 1, g: 1, b: 1, a: 1}
    - _OverlayNoiseOffset: {r: 0, g: 0, b: 0, a: 0}
    - _OverlayTextureOffset: {r: 0, g: 0, b: 0, a: 0}
    - _OverlayTextureTiling: {r: 1, g: 1, b: 0, a: 0}
    - _PulseColor: {r: 1, g: 0, b: 0, a: 1}
    - _SecondColor: {r: 0.3962264, g: 0.1140085, b: 0.1140085, a: 1}
    - _SpaceColor: {r: 0.990566, g: 0.546268, b: 0, a: 0}
    - _SpaceTextureOffset: {r: 0, g: 0, b: 0, a: 0}
    - _SpaceTextureTiling: {r: 1, g: 1, b: 0, a: 0}
  m_BuildTextureStacks: []
--- !u!114 &6465306899738773694
MonoBehaviour:
  m_ObjectHideFlags: 11
  m_CorrespondingSourceObject: {fileID: 0}
  m_PrefabInstance: {fileID: 0}
  m_PrefabAsset: {fileID: 0}
  m_GameObject: {fileID: 0}
  m_Enabled: 1
  m_EditorHideFlags: 0
  m_Script: {fileID: 11500000, guid: da692e001514ec24dbc4cca1949ff7e8, type: 3}
  m_Name: 
  m_EditorClassIdentifier: 
  version: 11
