%YAML 1.1
%TAG !u! tag:unity3d.com,2011:
--- !u!78 &1
TagManager:
  serializedVersion: 2
  tags:
  - projectile
  - FxTemporaire
  layers:
  - Default
  - TransparentFX
  - Ignore Raycast
  - VRPlayer
  - Water
  - UI
  - Drawing
  - VRTeleportation
  - Floor
  - TransparentCapsules
  - SpaceStations
  - 
  - Table
  - Camera
  - 
  - 
  - 
  - 
  - 
  - 
  - 
  - 
  - 
  - 
  - 
  - 
  - 
  - 
  - 
  - 
  - 
  - 
  m_SortingLayers:
  - name: Default
    uniqueID: 0
    locked: 0
